<?xml version="1.0" encoding="UTF-8" standalone="no"?>
<svg
   xmlns:dc="http://purl.org/dc/elements/1.1/"
   xmlns:cc="http://creativecommons.org/ns#"
   xmlns:rdf="http://www.w3.org/1999/02/22-rdf-syntax-ns#"
   xmlns:svg="http://www.w3.org/2000/svg"
   xmlns="http://www.w3.org/2000/svg"
   xmlns:sodipodi="http://sodipodi.sourceforge.net/DTD/sodipodi-0.dtd"
   xmlns:inkscape="http://www.inkscape.org/namespaces/inkscape"
   inkscape:version="1.0 (4035a4fb49, 2020-05-01)"
   sodipodi:docname="CalendarWarning.svg"
   id="svg10"
   version="1.1"
   fill="none"
   height="50"
   width="47.058594">
  <metadata
     id="metadata14">
    <rdf:RDF>
      <cc:Work
         rdf:about="">
        <dc:format>image/svg+xml</dc:format>
        <dc:type
           rdf:resource="http://purl.org/dc/dcmitype/StillImage" />
        <dc:title></dc:title>
      </cc:Work>
    </rdf:RDF>
  </metadata>
  <sodipodi:namedview
     inkscape:current-layer="svg10"
     inkscape:window-maximized="0"
     inkscape:window-y="0"
     inkscape:window-x="0"
     inkscape:cy="28.728141"
     inkscape:cx="24.674292"
     inkscape:zoom="12.162237"
     fit-margin-bottom="0"
     fit-margin-right="0"
     fit-margin-left="0"
     fit-margin-top="0"
     showgrid="false"
     id="namedview12"
     inkscape:window-height="1375"
     inkscape:window-width="1659"
     inkscape:pageshadow="2"
     inkscape:pageopacity="0"
     guidetolerance="10"
     gridtolerance="10"
     objecttolerance="10"
     borderopacity="1"
     bordercolor="#666666"
     pagecolor="#ffffff" />
  <defs
     id="defs2" />
  <g
     style="fill:#000000;fill-opacity:1;stroke:none"
     transform="scale(2)"
     id="g8"
     fill="#3d3d3d">
    <path
       style="fill:#000000;fill-opacity:1;stroke:none"
       d="M 6.3359375,0 C 5.7227022,0 5.21875,0.51413145 5.21875,1.1464844 H 5.2207 v 4.1582031 c 0,0.6308823 0.5005285,1.1464844 1.1152344,1.1464844 0.6147059,0 1.1171875,-0.5156021 1.1171875,-1.1464844 V 1.1464844 C 7.453125,0.51413145 6.9506434,0 6.3359375,0 Z M 17.220703,0 c -0.613235,0 -1.117187,0.51413145 -1.117187,1.1464844 v 4.1582031 c 0,0.6308823 0.504434,1.1464844 1.11914,1.1464844 0.613236,0 1.115235,-0.5156021 1.115235,-1.1464844 V 1.1464844 C 18.337891,0.51413145 17.835409,0 17.220703,0 Z M 3.3496094,1.9785156 C 1.5069623,1.9785156 0,3.5272749 0,5.4199219 V 21.558594 C 0,23.451241 1.5069624,25 3.3496094,25 H 20.179688 c 1.842647,0 3.349609,-1.548759 3.349609,-3.441406 V 5.4199219 c 0,-1.9220588 -1.506962,-3.4414063 -3.349609,-3.4414063 h -0.333985 c -0.614706,0 -1.117187,0.5156021 -1.117187,1.1464844 0,0.6308823 0.502481,1.1464844 1.117187,1.1464844 h 0.333985 c 0.614705,0 1.117187,0.5160845 1.117187,1.1484375 V 7.7402344 H 2.2324219 V 5.4179688 c 0,-0.6294118 0.5024816,-1.1464844 1.1171875,-1.1464844 h 0.3339844 c 0.6147058,0 1.1171874,-0.5156021 1.1171874,-1.1464844 0,-0.6308823 -0.5024816,-1.1464844 -1.1171874,-1.1464844 z m 5.6386718,0 c -0.6147058,0 -1.1171874,0.5156021 -1.1171874,1.1464844 0,0.6308823 0.5024816,1.1464844 1.1171874,1.1464844 h 5.5820308 c 0.613236,0 1.117188,-0.5156021 1.117188,-1.1464844 0,-0.6308823 -0.504435,-1.1464844 -1.119141,-1.1464844 H 8.9902344 Z M 2.2324219,10.007812 H 21.296875 v 11.525391 c 0,0.658824 -0.502482,1.175781 -1.117187,1.175781 v -0.0039 H 3.3496094 c -0.6147059,0 -1.1171875,-0.514131 -1.1171875,-1.146484 z m 9.5468751,1.115235 c -0.475,0 -0.865235,0.374563 -0.865235,0.861328 v 5.130859 c 1e-6,0.486765 0.390235,0.888672 0.865235,0.888672 0.473529,0 0.865234,-0.401907 0.865234,-0.888672 v -5.101562 c 0,-0.488235 -0.391705,-0.890625 -0.865234,-0.890625 z m 0,7.884765 c -0.539706,0 -0.978516,0.449495 -0.978516,1.003907 0,0.554411 0.43881,1.003906 0.978516,1.003906 0.538235,0 0.976562,-0.449495 0.976562,-1.003906 0,-0.554412 -0.438327,-1.003906 -0.976562,-1.003907 z"
       id="path4" />
  </g>
</svg>
