<?xml version="1.0" encoding="UTF-8" standalone="no"?>
<svg
   xmlns:dc="http://purl.org/dc/elements/1.1/"
   xmlns:cc="http://creativecommons.org/ns#"
   xmlns:rdf="http://www.w3.org/1999/02/22-rdf-syntax-ns#"
   xmlns:svg="http://www.w3.org/2000/svg"
   xmlns="http://www.w3.org/2000/svg"
   xmlns:sodipodi="http://sodipodi.sourceforge.net/DTD/sodipodi-0.dtd"
   xmlns:inkscape="http://www.inkscape.org/namespaces/inkscape"
   inkscape:version="1.0 (4035a4fb49, 2020-05-01)"
   sodipodi:docname="InGara.svg"
   id="svg13"
   version="1.1"
   fill="none"
   height="50"
   width="56.696266">
  <metadata
     id="metadata17">
    <rdf:RDF>
      <cc:Work
         rdf:about="">
        <dc:format>image/svg+xml</dc:format>
        <dc:type
           rdf:resource="http://purl.org/dc/dcmitype/StillImage" />
        <dc:title></dc:title>
      </cc:Work>
    </rdf:RDF>
  </metadata>
  <sodipodi:namedview
     inkscape:current-layer="svg13"
     inkscape:window-maximized="1"
     inkscape:window-y="-8"
     inkscape:window-x="-8"
     inkscape:cy="32.750225"
     inkscape:cx="22.367017"
     inkscape:zoom="11.313709"
     fit-margin-bottom="0"
     fit-margin-right="0"
     fit-margin-left="0"
     fit-margin-top="0"
     showgrid="false"
     id="namedview15"
     inkscape:window-height="1386"
     inkscape:window-width="2560"
     inkscape:pageshadow="2"
     inkscape:pageopacity="0"
     guidetolerance="10"
     gridtolerance="10"
     objecttolerance="10"
     borderopacity="1"
     bordercolor="#666666"
     pagecolor="#ffffff" />
  <defs
     id="defs2" />
  <g
     id="g8"
     transform="matrix(1.13636,0,0,1.13636,-54.903594,-7.1560426)"
     clip-path="url(#prefix__clip0)"
     stroke-width="0.3"
     stroke="#3d3d3d"
     fill="#3d3d3d">
    <g
       style="opacity:1"
       id="g842" />
    <g
       style="opacity:1"
       id="g848" />
  </g>
  <defs
     id="defs11">
    <clipPath
       id="prefix__clip0">
      <path
         transform="translate(1,2)"
         d="M 0,0 H 25 V 22 H 0 Z"
         fill="#ffffff"
         id="path8" />
    </clipPath>
  </defs>
  <path
     sodipodi:nodetypes="cccccccccsscccccccccccscssccccscccssssssscccccccccccsssccscsccsssccccccccccccscccccccsccccscccscsccccsscccccscccccccsccccccssssscccssscccsssccccssccssssssssccssssssssssssssssssssss"
     id="path844"
     style="color:#000000;font-style:normal;font-variant:normal;font-weight:normal;font-stretch:normal;font-size:medium;line-height:normal;font-family:sans-serif;font-variant-ligatures:normal;font-variant-position:normal;font-variant-caps:normal;font-variant-numeric:normal;font-variant-alternates:normal;font-variant-east-asian:normal;font-feature-settings:normal;font-variation-settings:normal;text-indent:0;text-align:start;text-decoration:none;text-decoration-line:none;text-decoration-style:solid;text-decoration-color:#000000;letter-spacing:normal;word-spacing:normal;text-transform:none;writing-mode:lr-tb;direction:ltr;text-orientation:mixed;dominant-baseline:auto;baseline-shift:baseline;text-anchor:start;white-space:normal;shape-padding:0;shape-margin:0;inline-size:0;clip-rule:nonzero;display:inline;overflow:visible;visibility:visible;opacity:1;isolation:auto;mix-blend-mode:normal;color-interpolation:sRGB;color-interpolation-filters:linearRGB;solid-color:#000000;solid-opacity:1;vector-effect:none;fill:#000000;fill-opacity:1;fill-rule:nonzero;stroke:none;stroke-width:0.672412;stroke-linecap:butt;stroke-linejoin:miter;stroke-miterlimit:4;stroke-dasharray:none;stroke-dashoffset:0;stroke-opacity:1;color-rendering:auto;image-rendering:auto;shape-rendering:auto;text-rendering:auto;enable-background:accumulate;stop-color:#000000;stop-opacity:1"
     d="M 14.257625,5.2814921e-4 C 13.077017,-0.02344985 12.180608,0.77322305 11.711208,1.5337722 l -0.0076,0.01156 L 6.187015,12.49377 c -0.370134,0.694317 -0.428403,1.490884 -0.365968,2.269048 -0.522995,0.247979 -1.089006,0.568261 -1.367593,1.263577 l -1.425378,2.785264 c -0.897003,1.616089 -0.523095,3.784164 0.789738,4.923332 1.753439,1.551543 3.535881,2.931826 5.112217,4.214549 0.09072,0.0567 0.182061,0.1153 0.277372,0.16566 0.09532,0.05034 0.165641,0.107881 0.350568,0.107881 0.455744,0 0.804116,-0.334372 1.020877,-0.743508 v -0.004 l 0.004,-0.004 C 10.911924,26.786429 10.814655,25.927187 10.20915,25.472304 7.772509,23.447316 6.054148,22.085559 5.274262,21.327153 v -0.004 l -0.004,-0.0038 C 5.024643,21.092139 4.939806,20.708143 5.162381,20.248383 l 1.340627,-2.569532 c 0.257248,-0.33905 0.320732,-0.232709 0.504809,-0.11276 9.968069,8.898387 20.079472,18.50142 28.530517,26.362725 1.141812,1.070892 2.500655,1.560212 3.844666,1.560208 h 10.33206 c -1.53747,0.673506 -3.11961,1.471604 -4.634409,1.471604 h -5.790115 c -1.452882,0 -2.915507,-0.535829 -4.125888,-1.506278 C 29.920184,41.27895 20.161101,33.489991 13.021219,27.737296 l -0.004,-0.004 h -0.004 c -0.291596,-0.219069 -0.653272,-0.310727 -0.986207,-0.227289 -0.332934,0.08346 -0.612224,0.333476 -0.78203,0.685722 -0.329402,0.686024 -0.235248,1.54097 0.369827,1.995528 6.723868,5.450445 15.617233,12.536805 21.030092,16.884942 H 10.281978 c -0.363554,0 -0.703845,0.164701 -0.920716,0.435318 -0.216872,0.27061 -0.319748,0.629097 -0.319748,1.028582 0,0.398564 0.10286,0.758342 0.319748,1.028585 C 9.578145,49.834925 9.918424,50 10.281978,50 h 34.706008 c 1.928684,0 4.219124,-0.637607 6.221584,-1.571766 2.00246,-0.934159 3.71876,-2.142151 4.46489,-3.447872 1.21645,-2.099229 1.31432,-4.153566 0.46614,-6.04437 -0.002,-0.004 0.002,-0.0112 0,-0.0154 -0.29749,-0.680854 -0.81093,-1.369884 -1.487,-1.729715 l -0.0194,-0.0076 -6.88418,-3.282221 -2.781416,-1.228904 -0.004,-0.0076 C 44.205898,32.243236 43.538658,31.618155 43.12317,30.788449 l -0.0076,-0.004 -2.303718,-4.765382 c 0.349044,-0.276179 0.716542,-0.574817 0.71654,-1.067107 0,-0.398564 -0.106941,-0.757846 -0.323598,-1.028582 -0.216673,-0.270735 -0.556701,-0.439168 -0.920717,-0.439172 H 39.594504 L 38.639117,21.50794 c 0.348929,-0.275582 0.716539,-0.5728 0.716539,-1.067106 0,-0.398194 -0.1069,-0.758104 -0.323597,-1.028584 -0.21644,-0.270215 -0.548597,-0.435186 -0.912883,-0.435186 h -0.69728 L 36.655274,17.44382 c 0.295084,-0.265763 0.624085,-0.533293 0.624085,-0.951535 0,-0.398564 -0.10628,-0.758276 -0.323599,-1.028581 -0.217322,-0.270308 -0.552577,-0.435319 -0.916865,-0.435319 H 35.430256 C 35.233822,14.177431 34.587033,13.20683 34.147321,12.61309 33.019133,11.029628 31.486997,10.163829 29.844316,10.405683 h -0.004 -0.004 c -1.486074,0.246133 -2.659294,1.347973 -3.151053,2.696658 l -0.0076,0.0116 -0.004,0.0194 c -0.10386,0.392078 -0.10328,0.835493 0.119421,1.255875 l 7.485155,15.99119 0.004,0.004 0.004,0.0154 c 0.0589,0.14208 0.139341,0.278255 0.250404,0.396794 0.11568,0.12346 0.270293,0.192621 0.477694,0.292781 2.324231,1.193129 6.322128,2.99571 9.172485,4.357021 h 0.09244 l 2.642728,1.209643 6.74165,3.251401 c 0.30229,0.130461 0.36355,0.290095 0.41998,0.43536 0.30472,0.767516 0.14561,1.462934 -0.17336,2.215114 H 39.475431 c -0.822296,0 -1.641145,-0.303022 -2.303718,-0.924569 h -0.004 L 12.219719,18.526618 c 0.165481,-0.176421 0.378642,-0.446507 0.612527,-0.855227 0.492823,-0.86305 0.678018,-1.930168 0.678018,-2.985588 v -0.0154 L 12.701267,5.2706336 13.733703,3.236582 c 0.0897,-0.1502408 0.212223,-0.2315714 0.327449,-0.2542565 0.112381,-0.022122 0.213104,0.0068 0.315894,0.1001605 0.160721,0.198541 0.45331,0.5046931 1.063256,1.4561963 0.623869,0.9732243 1.544652,2.5764743 2.850753,5.2199623 l 0.004,0.0038 0.004,0.0038 c 1.393045,2.5512284 3.629091,4.4268304 6.186911,4.9040684 0.356269,0.08678 0.703593,-0.0433 0.966943,-0.261959 0.264461,-0.219595 0.464798,-0.540523 0.523922,-0.913013 0.05898,-0.371498 -0.02592,-0.742228 -0.192621,-1.055549 -0.16666,-0.31331 -0.422502,-0.589026 -0.782032,-0.67802 h -0.004 C 23.201873,11.33333 21.474302,10.043549 20.432974,8.0981316 l -0.004,-0.0038 C 18.846302,5.046616 17.826304,3.2897425 17.150755,2.2464604 16.474605,1.202251 16.120327,0.85000485 15.933406,0.67469305 l -0.004,-0.00384 -0.0076,-0.00384 C 15.427338,0.23947935 14.842493,0.01651785 14.257625,5.2814921e-4 Z M 10.582462,9.5736696 11.029338,14.916909 c -0.0013,0.405172 -0.08902,0.806544 -0.231143,1.074811 -0.10554,0.196741 -0.238451,0.454897 -0.350566,0.543185 -0.05606,0.04414 -0.07692,0.05 -0.13098,0.04236 C 9.673231,16.157807 9.120354,15.620592 8.555979,15.120922 8.088517,14.628737 8.204147,14.341734 8.332538,14.019154 Z m 19.943726,3.8331094 c 1.16931,0.170021 1.509138,0.699239 1.999378,1.729715 h -0.281223 c -0.364286,0 -0.704026,0.164841 -0.920717,0.435316 -0.216695,0.270482 -0.319746,0.630391 -0.319746,1.028586 0,0.39782 0.103461,0.75737 0.319746,1.028581 0.216271,0.271211 0.555231,0.43917 0.920717,0.43917 h 1.687339 l 0.566299,1.128746 c -0.492657,-0.02204 -0.910921,0.220669 -1.09408,0.439169 -0.216471,0.270975 -0.3236,0.630391 -0.3236,1.028585 0,0.398192 0.106901,0.758102 0.3236,1.028581 0.216697,0.270484 0.548725,0.435323 0.913011,0.435319 h 1.602586 l 0.751214,1.471606 c -0.47097,-0.0134 -0.900305,0.220283 -1.101784,0.43917 -0.216695,0.270483 -0.319745,0.626539 -0.319745,1.024731 0,0.39819 0.10306,0.758104 0.319745,1.028582 0.216695,0.270481 0.556429,0.435318 0.920717,0.435318 h 1.602587 l 1.99938,3.921713 -3.983351,-1.802908 -6.876482,-14.646715 c 0.232293,-0.237551 0.530007,-0.491815 0.909159,-0.570151 0.10434,-0.02156 0.234829,-0.03396 0.385238,-0.02312 z M 1.240463,35.673482 c -0.36475,2e-6 -0.69654,0.168201 -0.913011,0.439171 C 0.110981,36.383626 0,36.743046 0,37.141236 c 0,0.398194 0.110761,0.7581 0.327452,1.028584 0.216691,0.270479 0.548725,0.431464 0.913011,0.431464 h 8.767996 c 0.387268,0 0.717378,-0.208529 0.924571,-0.485399 0.207191,-0.276865 0.315894,-0.621025 0.315894,-0.974649 0,-0.398562 -0.103081,-0.757848 -0.319748,-1.028583 -0.216665,-0.270736 -0.556699,-0.439169 -0.920717,-0.439171 z m 1.814467,5.643724 c -0.363824,0 -0.70319,0.169001 -0.920717,0.439171 -0.217527,0.270181 -0.323597,0.629097 -0.323597,1.028583 0,0.398562 0.10628,0.758274 0.323597,1.028582 0.217319,0.270305 0.556429,0.431466 0.920717,0.431466 h 15.721525 c 0.387442,0 0.7174,-0.208439 0.924569,-0.485399 0.207169,-0.276957 0.315896,-0.620639 0.315896,-0.974649 0,-0.398192 -0.106901,-0.758104 -0.3236,-1.028583 -0.216691,-0.27048 -0.552577,-0.439171 -0.916865,-0.439171 z m 1.80291,5.643722 c -0.364288,0 -0.700174,0.164861 -0.916865,0.435319 -0.216691,0.270483 -0.3236,0.626541 -0.3236,1.024731 0,0.398194 0.106901,0.758104 0.3236,1.028583 0.216691,0.27048 0.552577,0.439171 0.916865,0.439171 h 1.806761 c 0.363826,0 0.703816,-0.168821 0.920717,-0.439171 0.216901,-0.270357 0.3236,-0.629467 0.3236,-1.028583 0,-0.39819 -0.106901,-0.754248 -0.3236,-1.024731 -0.216691,-0.27048 -0.556429,-0.435319 -0.920717,-0.435319 z" />
</svg>
