<?xml version="1.0" encoding="UTF-8" standalone="no"?>
<svg
   xmlns:dc="http://purl.org/dc/elements/1.1/"
   xmlns:cc="http://creativecommons.org/ns#"
   xmlns:rdf="http://www.w3.org/1999/02/22-rdf-syntax-ns#"
   xmlns:svg="http://www.w3.org/2000/svg"
   xmlns="http://www.w3.org/2000/svg"
   xmlns:sodipodi="http://sodipodi.sourceforge.net/DTD/sodipodi-0.dtd"
   xmlns:inkscape="http://www.inkscape.org/namespaces/inkscape"
   inkscape:version="1.0 (4035a4fb49, 2020-05-01)"
   sodipodi:docname="TestConclusi.svg"
   id="svg9"
   version="1.1"
   fill="none"
   height="50"
   width="50">
  <metadata
     id="metadata13">
    <rdf:RDF>
      <cc:Work
         rdf:about="">
        <dc:format>image/svg+xml</dc:format>
        <dc:type
           rdf:resource="http://purl.org/dc/dcmitype/StillImage" />
        <dc:title></dc:title>
      </cc:Work>
    </rdf:RDF>
  </metadata>
  <sodipodi:namedview
     inkscape:current-layer="svg9"
     inkscape:window-maximized="1"
     inkscape:window-y="-8"
     inkscape:window-x="-8"
     inkscape:cy="20.636007"
     inkscape:cx="21.116476"
     inkscape:zoom="12.162237"
     fit-margin-bottom="0"
     fit-margin-right="0"
     fit-margin-left="0"
     fit-margin-top="0"
     showgrid="false"
     id="namedview11"
     inkscape:window-height="1386"
     inkscape:window-width="2560"
     inkscape:pageshadow="2"
     inkscape:pageopacity="0"
     guidetolerance="10"
     gridtolerance="10"
     objecttolerance="10"
     borderopacity="1"
     bordercolor="#666666"
     pagecolor="#ffffff" />
  <defs
     id="defs2" />
  <g
     transform="matrix(1.010101,0,0,1.010101,-0.25252525,-0.25252525)"
     style="opacity:1;fill:#000000;fill-opacity:1;stroke:none"
     id="g838">
    <path
       d="m 21.724609,0.25 c -0.480434,0 -0.871093,0.40180969 -0.871093,0.8847656 V 26.833984 h -2.070313 c -0.481595,0 -0.871094,0.401039 -0.871094,0.882813 v 3.347656 h -5.009765 c -0.480434,0 -0.871094,0.399857 -0.871094,0.882813 v 3.949218 H 6.3867188 c -0.4804337,0 -0.8710938,0.401811 -0.8710938,0.884766 v 5.158203 H 1.1210938 C 0.64065997,41.939453 0.25,42.341263 0.25,42.824219 v 6.041015 C 0.25,49.349414 0.64187306,49.75 1.1210938,49.75 H 48.878906 C 49.359339,49.75 49.75,49.348192 49.75,48.865234 v -6.041015 c 0,-0.490052 -0.39736,-0.884766 -0.871094,-0.884766 H 44.484375 V 36.78125 c 0,-0.482955 -0.39066,-0.884766 -0.871094,-0.884766 h -5.630859 v -3.949218 c 0,-0.484083 -0.393005,-0.888672 -0.876953,-0.888672 h -5.007813 v -3.341797 c 0,-0.481886 -0.389921,-0.882813 -0.86914,-0.882813 H 24.957031 V 15.3125 h 6.521485 c -5.27e-4,1.359935 -0.0028,2.208007 -0.002,2.533203 4.79e-4,0.180651 2.68e-4,0.257843 0.0059,0.322266 0.0056,0.06442 0.02469,0.114704 0.02734,0.125 l 0.002,0.01172 0.0039,0.01172 c 0.02284,0.06469 0.04301,0.105674 0.07617,0.160156 l -0.0039,-0.0039 c 0.01365,0.02327 0.01041,0.02182 0.0332,0.05859 0.02011,0.03243 0.04236,0.05686 0.06445,0.08008 -0.0012,-0.0016 0.0087,0.0082 0.0078,0.0078 0.0059,0.0078 0.01174,0.01749 0.02344,0.03125 0.02998,0.03525 0.07547,0.08103 0.136719,0.125 l 0.0039,0.002 0.002,0.002 c 0.157516,0.107113 0.333495,0.148437 0.488281,0.148437 h 11.810547 c 0.720062,0 1.118504,-0.875589 0.677735,-1.435546 v -0.002 l -4.289123,-5.48051 4.291016,-5.4921879 C 45.275586,5.9500818 44.874167,5.0820312 44.158203,5.0820312 H 35.583984 V 3.5527344 c 0,-0.4841796 -0.393825,-0.8847659 -0.873046,-0.8847656 H 24.957031 V 1.1347656 C 24.957031,0.65058616 24.565158,0.25 24.085938,0.25 Z m 0.873047,1.7734375 h 0.615235 V 26.833984 H 22.597656 Z M 24.957031,4.4375 h 8.878907 v 9.101562 H 24.957031 V 5.9707031 Z m 10.613281,2.4179688 h 6.779297 l -3.597656,4.6015622 c -0.260641,0.320299 -0.260641,0.785171 0,1.105469 l 3.597656,4.605469 H 33.96875 c 0.653903,-0.999438 1.16458,-1.777834 1.337891,-2.048828 0.105091,-0.164324 0.151794,-0.237027 0.185547,-0.306641 0.03198,-0.06596 0.04002,-0.124802 0.04297,-0.138672 v -0.002 c 0.0017,-0.0059 0.03516,-0.107586 0.03516,-0.230469 z M 19.642578,28.607422 H 30.34375 v 2.457031 H 19.642578 Z m -5.875,4.224609 h 22.464844 v 3.064453 H 13.767578 Z M 7.2597656,37.666016 H 42.728516 v 4.273437 H 7.2597656 Z m -5.265625,6.041015 H 47.994141 l 0.01172,4.269531 H 1.9941406 Z"
       style="color:#000000;font-style:normal;font-variant:normal;font-weight:normal;font-stretch:normal;font-size:medium;line-height:normal;font-family:sans-serif;font-variant-ligatures:normal;font-variant-position:normal;font-variant-caps:normal;font-variant-numeric:normal;font-variant-alternates:normal;font-variant-east-asian:normal;font-feature-settings:normal;font-variation-settings:normal;text-indent:0;text-align:start;text-decoration:none;text-decoration-line:none;text-decoration-style:solid;text-decoration-color:#000000;letter-spacing:normal;word-spacing:normal;text-transform:none;writing-mode:lr-tb;direction:ltr;text-orientation:mixed;dominant-baseline:auto;baseline-shift:baseline;text-anchor:start;white-space:normal;shape-padding:0;shape-margin:0;inline-size:0;clip-rule:nonzero;display:inline;overflow:visible;visibility:visible;isolation:auto;mix-blend-mode:normal;color-interpolation:sRGB;color-interpolation-filters:linearRGB;solid-color:#000000;solid-opacity:1;vector-effect:none;fill:#000000;fill-opacity:1;fill-rule:nonzero;stroke:none;stroke-width:0.564;stroke-linecap:butt;stroke-linejoin:miter;stroke-miterlimit:4;stroke-dasharray:none;stroke-dashoffset:0;stroke-opacity:1;color-rendering:auto;image-rendering:auto;shape-rendering:auto;text-rendering:auto;enable-background:accumulate;stop-color:#000000;stop-opacity:1"
       id="path842" />
  </g>
  <defs
     id="defs11">
    <clipPath
       id="prefix__clip0">
      <path
         transform="translate(2,2)"
         d="M 0,0 H 23 V 23 H 0 Z"
         fill="#ffffff"
         id="path8" />
    </clipPath>
  </defs>
</svg>
